{
    "lessons": [
      {
        "slug": "9991",
        "introduction": [
          "Andamio is built to be a learning platform that other projects can spin up and use to teach their own lessons.",
          "In this Lesson, you will learn how to create new module on Andamio."
        ],
        "links": [
        ],
        "videoHeading": "",
        "youtubeId": "",
        "successComponent": false,
        "success": {
          "criteria": "",
          "text": ""
        },
        "assignmentComponent": true,
        "markdownComponent": false
      },
      {
        "slug": "9992",
        "introduction": [
          "Andamio is built to be a learning platform that other projects can spin up and use to teach their own lessons.",
          "In this Lesson, you will learn how to create new lesson on Andamio."
        ],
        "links": [],
        "videoHeading": "",
        "youtubeId": "",
        "successComponent": false,
        "success": {
          "criteria": "",
          "text": ""
        },
        "assignmentComponent": true,
        "markdownComponent": false
      }
    ]
  }