{
    "childrenHasChildren": [
      {
        "label": "100: Onboarding",
        "children": [
          {
            "label": "100",
            "subLabel": "Introductions and Getting Started",
            "href": "/modules/100/slts"
          },
          {
            "label": "101",
            "subLabel": "Write your first smart contract",
            "href": "/modules/101/slts"
          },
          {
            "label": "102",
            "subLabel": "Build your first transactions",
            "href": "/modules/102/slts"
          },
          {
            "label": "103",
            "subLabel": "What you will learn in this course",
            "href": "/modules/103/slts"
          }
        ]
      },
      {
        "label": "200: Building Background Knowledge",
        "children": [
          {
            "label": "201",
            "subLabel": "Build a front end dApp template",
            "href": "/modules/201/slts"
          },
          {
            "label": "202",
            "subLabel": "Five ways to mint a token",
            "href": "/modules/202/slts"
          },
          {
            "label": "203",
            "subLabel": "Three ways to mint an NFT",
            "href": "/modules/203/slts"
          },
          {
            "label": "204",
            "subLabel": "PPBL Faucet Project",
            "href": "/modules/204/slts"
          }
        ]
      },
      {
        "label": "301: Writing Plutus Validators",
        "children": [
          {
            "label": "301.1",
            "subLabel": "I can write a Plutus Spending Validator",
            "href": "/modules/3011/slts"
          }
        ]
      }
    ]
  }
