{
  "lessons": [
    {
      "slug": "2041",
      "introduction": [
        "In this mini-project, you will contribute an instance of a token-gated contract. Then you will add your project to a dapp aggregator"
      ],
      "links": [],
      "videoHeading": "How to unlock tokens from faucet",
      "youtubeId": "aaa",
      "successComponent": false,
      "success": { "criteria": "", "text": "" },
      "assignmentComponent": true,
      "markdownComponent": false
    },
    {
      "slug": "2042",
      "introduction": [
        "Here is how the contract works.",
        "We will look at the contract in three languages: PlutusTx, Aiken, and Plu-TS"
      ],
      "links": [],
      "videoHeading": "Three choices",
      "youtubeId": "aaa",
      "successComponent": false,
      "success": { "criteria": "", "text": "" },
      "assignmentComponent": true,
      "markdownComponent": false
    },
    {
      "slug": "2043",
      "introduction": ["Your choice represents a vote!"],
      "links": [],
      "videoHeading": "Choose Wisely",
      "youtubeId": "ccc",
      "successComponent": false,
      "success": { "criteria": "", "text": "" },
      "assignmentComponent": true,
      "markdownComponent": false
    }
  ]
}
