{
    "lessons": [
      {
        "slug": "3011",
        "introduction": [
          "A script is a program that decides whether the transaction that spends the output is authorized to do so.",
          "Such a script is called a validator script it validates whether the spending is allowed.",
          "In this Lesson, you will learn how to write such a script."
        ],
        "links": [
        ],
        "videoHeading": "Introduction to Plutus Spending Validators",
        "youtubeId": "KNhznrD9RTA",
        "successComponent": false,
        "success": {
          "criteria": "",
          "text": ""
        },
        "assignmentComponent": true,
        "markdownComponent": false
      },
      {
        "slug": "3012",
        "introduction": [
          "Andamio is built to be a learning platform that other projects can spin up and use to teach their own lessons.",
          "In this Lesson, you will learn how to create new lesson on Andamio."
        ],
        "links": [],
        "videoHeading": "",
        "youtubeId": "",
        "successComponent": false,
        "success": {
          "criteria": "",
          "text": ""
        },
        "assignmentComponent": true,
        "markdownComponent": false
      },
            {
        "slug": "3013",
        "introduction": [
          "Andamio is built to be a learning platform that other projects can spin up and use to teach their own lessons.",
          "In this Lesson, you will learn how to create new lesson on Andamio."
        ],
        "links": [],
        "videoHeading": "",
        "youtubeId": "",
        "successComponent": false,
        "success": {
          "criteria": "",
          "text": ""
        },
        "assignmentComponent": true,
        "markdownComponent": false
      }
    ]
  }